{
  "186": [
    0,
    0,
    0,
    8,
    0,
    0,
    0,
    14,
    0,
    -34,
    0,
    19,
    26,
    0,
    0,
    0,
    50,
    0,
    0,
    0,
    44,
    140
  ],
  "46": [
    6,
    0,
    0,
    8,
    22,
    0,
    0,
    0,
    0,
    0,
    0,
    0,
    -5,
    0,
    0,
    0,
    0,
    0,
    0,
    0,
    0,
    36
  ],
  "162": [
    23,
    0,
    250,
    0,
    0,
    17,
    0,
    0,
    -10,
    39,
    0,
    0,
    0,
    0,
    0,
    0,
    39,
    0,
    0,
    0,
    51,
    106
  ],
  "2": [
    2,
    0,
    100,
    15,
    0,
    0,
    0,
    0,
    0,
    0,
    0,
    0,
    0,
    0,
    0,
    0,
    0,
    0,
    0,
    0,
    0,
    30
  ],
  "35": [
    0,
    0,
    0,
    2,
    0,
    0,
    0,
    0,
    0,
    0,
    0,
    0,
    0,
    0,
    0,
    0,
    0,
    0,
    0,
    0,
    0,
    16
  ],
  "160": [
    16,
    0,
    0,
    0,
    0,
    0,
    15,
    0,
    0,
    0,
    0,
    0,
    0,
    0,
    0,
    0,
    0,
    0,
    31,
    0,
    56,
    105
  ],
  "109": [
    -6,
    0,
    0,
    0,
    0,
    0,
    0,
    0,
    -35,
    0,
    0,
    0,
    -25,
    4,
    0,
    76,
    0,
    0,
    0,
    0,
    0,
    80
  ],
  "142": [
    16,
    0,
    0,
    0,
    0,
    25,
    0,
    35,
    0,
    0,
    0,
    25,
    0,
    0,
    0,
    0,
    0,
    25,
    0,
    0,
    0,
    92
  ],
  "116": [
    4,
    350,
    0,
    0,
    0,
    30,
    0,
    25,
    0,
    0,
    0,
    5,
    0,
    0,
    0,
    0,
    0,
    0,
    0,
    0,
    0,
    82
  ],
  "175": [
    21,
    0,
    324,
    21,
    0,
    0,
    0,
    0,
    22,
    -13,
    0,
    0,
    30,
    0,
    0,
    0,
    0,
    0,
    0,
    0,
    52,
    114
  ],
  "40": [
    3,
    0,
    140,
    0,
    0,
    0,
    6,
    0,
    12,
    0,
    0,
    0,
    6,
    0,
    0,
    0,
    0,
    0,
    0,
    0,
    0,
    32
  ],
  "17": [
    0,
    220,
    90,
    0,
    0,
    2,
    0,
    0,
    0,
    0,
    0,
    0,
    0,
    0,
    0,
    0,
    0,
    0,
    0,
    0,
    0,
    29
  ],
  "50": [
    6,
    0,
    400,
    10,
    0,
    0,
    25,
    0,
    -13,
    0,
    12,
    0,
    0,
    0,
    0,
    0,
    0,
    0,
    0,
    0,
    0,
    40
  ],
  "182": [
    13,
    781,
    466,
    18,
    0,
    0,
    0,
    11,
    27,
    0,
    0,
    0,
    0,
    0,
    0,
    0,
    50,
    0,
    50,
    0,
    0,
    120
  ],
  "154": [
    0,
    0,
    0,
    0,
    0,
    0,
    0,
    15,
    0,
    0,
    0,
    0,
    0,
    0,
    0,
    145,
    15,
    0,
    0,
    0,
    0,
    100
  ],
  "151": [
    8,
    700,
    0,
    0,
    0,
    0,
    0,
    0,
    0,
    35,
    0,
    0,
    0,
    0,
    0,
    0,
    0,
    0,
    20,
    20,
    40,
    99
  ],
  "45": [
    7,
    175,
    60,
    0,
    0,
    0,
    0,
    0,
    0,
    6,
    0,
    2,
    0,
    0,
    0,
    0,
    0,
    0,
    0,
    0,
    0,
    30
  ],
  "98": [
    0,
    0,
    0,
    4,
    24,
    0,
    0,
    0,
    18,
    0,
    0,
    4,
    20,
    0,
    -3,
    0,
    0,
    0,
    0,
    0,
    0,
    65
  ],
  "28": [
    6,
    0,
    0,
    6,
    13,
    0,
    0,
    0,
    0,
    0,
    0,
    0,
    0,
    0,
    0,
    0,
    0,
    0,
    0,
    0,
    0,
    32
  ],
  "148": [
    15,
    600,
    600,
    0,
    0,
    0,
    0,
    0,
    0,
    30,
    0,
    0,
    0,
    0,
    0,
    0,
    0,
    -35,
    0,
    15,
    0,
    96
  ],
  "76": [
    0,
    0,
    0,
    -1,
    0,
    0,
    0,
    0,
    0,
    0,
    0,
    0,
    0,
    2,
    16,
    18,
    7,
    0,
    0,
    0,
    0,
    37
  ],
  "9": [
    0,
    200,
    375,
    0,
    0,
    0,
    0,
    14,
    0,
    0,
    0,
    0,
    0,
    0,
    0,
    0,
    0,
    0,
    0,
    0,
    0,
    31
  ],
  "27": [
    0,
    240,
    90,
    0,
    0,
    6,
    0,
    2,
    0,
    2,
    0,
    0,
    0,
    0,
    0,
    0,
    0,
    0,
    0,
    0,
    0,
    28
  ],
  "170": [
    17,
    651,
    0,
    36,
    0,
    0,
    0,
    0,
    0,
    0,
    0,
    0,
    0,
    0,
    0,
    0,
    40,
    0,
    0,
    0,
    41,
    110
  ],
  "13": [
    3,
    0,
    0,
    0,
    16,
    0,
    0,
    0,
    0,
    0,
    0,
    0,
    -2,
    0,
    0,
    0,
    0,
    0,
    0,
    0,
    0,
    32
  ],
  "41": [
    0,
    100,
    0,
    2,
    0,
    0,
    0,
    0,
    0,
    0,
    0,
    12,
    0,
    0,
    0,
    0,
    0,
    0,
    0,
    0,
    0,
    28
  ],
  "18": [
    0,
    0,
    300,
    0,
    0,
    0,
    0,
    0,
    0,
    8,
    14,
    0,
    6,
    0,
    0,
    0,
    0,
    0,
    0,
    0,
    0,
    24
  ],
  "95": [
    0,
    0,
    0,
    0,
    21,
    3,
    24,
    0,
    0,
    -3,
    -19,
    4,
    0,
    0,
    0,
    0,
    0,
    11,
    0,
    0,
    0,
    62
  ],
  "105": [
    0,
    194,
    0,
    0,
    0,
    0,
    0,
    0,
    0,
    0,
    0,
    0,
    -22,
    0,
    0,
    0,
    0,
    0,
    0,
    0,
    0,
    74
  ],
  "42": [
    4,
    0,
    75,
    4,
    24,
    0,
    0,
    0,
    0,
    0,
    0,
    0,
    0,
    0,
    0,
    0,
    0,
    0,
    0,
    0,
    0,
    31
  ],
  "44": [
    0,
    300,
    0,
    0,
    0,
    8,
    0,
    8,
    0,
    8,
    0,
    0,
    0,
    0,
    0,
    0,
    0,
    0,
    0,
    0,
    0,
    31
  ],
  "149": [
    12,
    400,
    0,
    15,
    0,
    20,
    0,
    20,
    0,
    15,
    0,
    20,
    0,
    15,
    0,
    0,
    0,
    0,
    0,
    0,
    0,
    97
  ],
  "112": [
    0,
    650,
    0,
    10,
    0,
    0,
    0,
    25,
    0,
    30,
    0,
    0,
    0,
    0,
    0,
    0,
    0,
    0,
    25,
    0,
    0,
    87
  ],
  "120": [
    9,
    0,
    0,
    15,
    0,
    25,
    0,
    35,
    0,
    0,
    0,
    0,
    0,
    0,
    0,
    0,
    0,
    0,
    0,
    0,
    0,
    83
  ],
  "138": [
    5,
    0,
    200,
    20,
    0,
    20,
    0,
    20,
    0,
    20,
    0,
    20,
    0,
    20,
    0,
    0,
    0,
    0,
    0,
    0,
    0,
    86
  ],
  "158": [
    0,
    768,
    647,
    0,
    0,
    34,
    0,
    37,
    0,
    0,
    0,
    8,
    25,
    0,
    0,
    0,
    0,
    0,
    0,
    0,
    0,
    104
  ],
  "19": [
    0,
    0,
    0,
    0,
    0,
    0,
    24,
    0,
    0,
    0,
    0,
    0,
    0,
    0,
    0,
    0,
    0,
    0,
    0,
    0,
    0,
    31
  ],
  "20": [
    0,
    140,
    0,
    0,
    0,
    0,
    0,
    0,
    25,
    0,
    0,
    0,
    10,
    0,
    0,
    0,
    0,
    0,
    0,
    0,
    0,
    28
  ],
  "5": [
    1,
    0,
    100,
    2,
    0,
    0,
    0,
    0,
    0,
    0,
    0,
    0,
    0,
    0,
    0,
    0,
    0,
    0,
    0,
    0,
    0,
    20
  ],
  "52": [
    0,
    400,
    350,
    0,
    30,
    0,
    -12,
    0,
    -12,
    0,
    15,
    0,
    0,
    0,
    0,
    0,
    0,
    0,
    0,
    0,
    0,
    50
  ],
  "96": [
    0,
    0,
    74,
    3,
    22,
    0,
    0,
    -4,
    0,
    0,
    0,
    0,
    0,
    0,
    0,
    0,
    0,
    0,
    10,
    10,
    44,
    63
  ],
  "70": [
    -1,
    0,
    0,
    0,
    0,
    -1,
    0,
    0,
    0,
    0,
    0,
    0,
    -11,
    1,
    13,
    28,
    6,
    0,
    0,
    0,
    0,
    30
  ],
  "75": [
    0,
    76,
    0,
    2,
    0,
    0,
    0,
    0,
    0,
    0,
    0,
    0,
    0,
    0,
    0,
    0,
    0,
    0,
    8,
    0,
    26,
    36
  ],
  "180": [
    0,
    557,
    0,
    0,
    8,
    0,
    0,
    0,
    0,
    0,
    0,
    0,
    15,
    0,
    0,
    0,
    43,
    0,
    37,
    0,
    0,
    119
  ],
  "178": [
    12,
    0,
    0,
    -22,
    23,
    0,
    0,
    0,
    0,
    47,
    0,
    0,
    0,
    44,
    0,
    0,
    43,
    0,
    0,
    26,
    0,
    117
  ],
  "179": [
    0,
    0,
    0,
    0,
    0,
    0,
    12,
    0,
    0,
    0,
    0,
    0,
    0,
    0,
    0,
    164,
    0,
    0,
    0,
    0,
    61,
    118
  ],
  "172": [
    20,
    0,
    0,
    0,
    0,
    0,
    0,
    0,
    24,
    0,
    0,
    -40,
    0,
    0,
    0,
    183,
    40,
    0,
    0,
    27,
    0,
    111
  ],
  "155": [
    19,
    0,
    0,
    0,
    0,
    25,
    0,
    0,
    11,
    17,
    0,
    0,
    0,
    -38,
    0,
    0,
    0,
    0,
    33,
    0,
    0,
    101
  ],
  "166": [
    0,
    790,
    455,
    0,
    -35,
    0,
    24,
    36,
    0,
    0,
    0,
    21,
    19,
    0,
    0,
    0,
    0,
    0,
    0,
    0,
    0,
    108
  ],
  "167": [
    14,
    0,
    404,
    19,
    0,
    24,
    0,
    0,
    18,
    -33,
    0,
    0,
    30,
    0,
    0,
    0,
    0,
    0,
    0,
    0,
    35,
    109
  ],
  "165": [
    0,
    900,
    0,
    39,
    0,
    0,
    0,
    0,
    0,
    -50,
    11,
    0,
    30,
    47,
    0,
    0,
    0,
    0,
    0,
    0,
    0,
    107
  ],
  "164": [
    0,
    664,
    494,
    0,
    10,
    0,
    35,
    0,
    32,
    0,
    0,
    0,
    30,
    17,
    0,
    0,
    0,
    -26,
    0,
    0,
    0,
    107
  ],
  "181": [
    0,
    0,
    0,
    0,
    0,
    18,
    0,
    0,
    0,
    0,
    0,
    0,
    0,
    0,
    0,
    0,
    0,
    0,
    0,
    0,
    0,
    120
  ],
  "79": [
    0,
    0,
    0,
    -3,
    0,
    0,
    0,
    0,
    -13,
    0,
    0,
    0,
    0,
    2,
    19,
    40,
    8,
    0,
    0,
    0,
    0,
    41
  ],
  "23": [
    2,
    0,
    0,
    0,
    0,
    0,
    0,
    6,
    0,
    0,
    0,
    0,
    12,
    0,
    0,
    0,
    0,
    0,
    0,
    0,
    0,
    23
  ],
  "67": [
    0,
    0,
    0,
    0,
    0,
    0,
    0,
    0,
    0,
    0,
    0,
    0,
    -9,
    1,
    10,
    0,
    4,
    0,
    0,
    0,
    0,
    26
  ],
  "72": [
    0,
    99,
    0,
    0,
    15,
    0,
    0,
    0,
    0,
    0,
    0,
    0,
    0,
    0,
    0,
    0,
    0,
    0,
    5,
    7,
    18,
    32
  ],
  "84": [
    0,
    147,
    0,
    3,
    0,
    0,
    0,
    0,
    0,
    0,
    0,
    0,
    0,
    0,
    0,
    0,
    0,
    0,
    11,
    9,
    36,
    48
  ],
  "185": [
    20,
    827,
    0,
    0,
    0,
    0,
    0,
    10,
    0,
    0,
    0,
    0,
    15,
    0,
    0,
    164,
    0,
    0,
    0,
    0,
    0,
    130
  ],
  "118": [
    17,
    0,
    0,
    5,
    0,
    5,
    0,
    5,
    0,
    0,
    0,
    0,
    0,
    0,
    0,
    0,
    0,
    25,
    0,
    0,
    0,
    90
  ],
  "8": [
    0,
    200,
    0,
    0,
    0,
    0,
    0,
    0,
    0,
    10,
    15,
    0,
    0,
    0,
    0,
    0,
    0,
    0,
    0,
    0,
    0,
    33
  ],
  "83": [
    0,
    0,
    0,
    2,
    0,
    3,
    21,
    0,
    0,
    0,
    0,
    2,
    20,
    0,
    -2,
    0,
    0,
    9,
    0,
    0,
    0,
    46
  ],
  "141": [
    8,
    400,
    400,
    40,
    0,
    0,
    0,
    0,
    0,
    40,
    0,
    0,
    0,
    0,
    0,
    0,
    0,
    0,
    0,
    0,
    40,
    92
  ],
  "25": [
    6,
    160,
    0,
    2,
    0,
    0,
    0,
    0,
    0,
    0,
    6,
    0,
    0,
    0,
    0,
    0,
    0,
    0,
    0,
    0,
    0,
    31
  ],
  "174": [
    17,
    0,
    519,
    38,
    0,
    -19,
    0,
    0,
    21,
    0,
    0,
    0,
    30,
    0,
    0,
    0,
    0,
    35,
    0,
    0,
    0,
    113
  ],
  "26": [
    0,
    100,
    100,
    0,
    4,
    0,
    0,
    0,
    0,
    0,
    0,
    0,
    2,
    0,
    0,
    0,
    0,
    0,
    0,
    0,
    0,
    28
  ],
  "3": [
    0,
    100,
    0,
    0,
    0,
    8,
    0,
    4,
    0,
    0,
    0,
    0,
    0,
    0,
    0,
    0,
    0,
    0,
    0,
    0,
    0,
    30
  ],
  "74": [
    0,
    0,
    0,
    0,
    0,
    0,
    15,
    0,
    0,
    0,
    0,
    2,
    13,
    -1,
    -1,
    0,
    0,
    7,
    0,
    0,
    0,
    35
  ],
  "85": [
    -2,
    0,
    0,
    -3,
    -17,
    0,
    0,
    0,
    0,
    0,
    -14,
    0,
    0,
    3,
    21,
    0,
    8,
    0,
    0,
    0,
    0,
    49
  ],
  "15": [
    6,
    75,
    0,
    0,
    0,
    0,
    0,
    0,
    0,
    10,
    4,
    0,
    0,
    0,
    0,
    0,
    0,
    0,
    0,
    0,
    0,
    29
  ],
  "55": [
    15,
    0,
    0,
    0,
    40,
    0,
    12,
    0,
    20,
    -20,
    -15,
    0,
    0,
    0,
    0,
    0,
    0,
    0,
    0,
    0,
    0,
    80
  ],
  "6": [
    0,
    140,
    0,
    0,
    12,
    0,
    0,
    0,
    0,
    0,
    12,
    0,
    0,
    0,
    0,
    0,
    0,
    0,
    0,
    0,
    0,
    30
  ],
  "102": [
    0,
    0,
    94,
    3,
    25,
    0,
    0,
    0,
    0,
    0,
    0,
    0,
    0,
    -4,
    0,
    0,
    0,
    0,
    0,
    0,
    0,
    71
  ],
  "173": [
    0,
    0,
    0,
    31,
    0,
    -45,
    8,
    0,
    0,
    0,
    0,
    -18,
    0,
    0,
    0,
    200,
    0,
    0,
    0,
    21,
    0,
    112
  ],
  "4": [
    0,
    50,
    25,
    0,
    0,
    8,
    0,
    0,
    6,
    0,
    0,
    0,
    0,
    0,
    0,
    0,
    0,
    0,
    0,
    0,
    0,
    25
  ],
  "171": [
    0,
    0,
    0,
    23,
    21,
    0,
    -35,
    0,
    14,
    0,
    -19,
    24,
    0,
    0,
    0,
    181,
    0,
    0,
    0,
    0,
    0,
    111
  ],
  "168": [10,0,700,25,0,0,0,0,0,0,0,0,0,0,0,0,0,0,43,0,0,109],
  "169": [0,605,500,0,-28,0,-19,0,0,0,-27,0,0,0,0,181,0,35,0,0,0,110],
  "176": [13,617,0,57,0,0,0,33,0,0,0,0,0,0,0,0,0,0,0,0,0,115],
  "177": [0,491,0,31,0,20,0,10,0,0,0,0,30,0,0,0,0,0,0,0,0,116],
  "183": [0,0,537,0,0,0,16,0,0,0,-18,0,0,35,0,0,0,0,0,0,0,120],
  "43": [
    0,
    0,
    60,
    8,
    14,
    0,
    0,
    0,
    0,
    0,
    0,
    0,
    0,
    0,
    0,
    0,
    0,
    0,
    0,
    0,
    0,
    30
  ],
  "49": [
    0,
    0,
    0,
    0,
    22,
    0,
    22,
    0,
    22,
    0,
    0,
    0,
    0,
    0,
    0,
    0,
    0,
    0,
    0,
    0,
    0,
    33
  ],
  "93": [
    0,
    113,
    0,
    0,
    0,
    0,
    0,
    0,
    0,
    0,
    0,
    0,
    0,
    -4,
    0,
    0,
    0,
    0,
    10,
    0,
    42,
    59
  ],
  "60": [
    0,
    0,
    26,
    0,
    0,
    0,
    0,
    0,
    0,
    0,
    0,
    0,
    -6,
    0,
    0,
    0,
    0,
    0,
    0,
    0,
    0,
    17
  ],
  "101": [
    0,
    0,
    0,
    3,
    29,
    0,
    0,
    3,
    21,
    0,
    0,
    3,
    28,
    0,
    0,
    0,
    0,
    0,
    0,
    0,
    0,
    69
  ],
  "145": [
    12,
    300,
    0,
    30,
    0,
    0,
    0,
    0,
    0,
    30,
    0,
    30,
    0,
    0,
    0,
    0,
    0,
    0,
    30,
    0,
    0,
    94
  ],
  "91": [
    0,
    0,
    0,
    0,
    0,
    0,
    0,
    0,
    0,
    -2,
    0,
    -4,
    0,
    3,
    21,
    48,
    0,
    0,
    0,
    0,
    0,
    56
  ],
  "16": [
    4,
    0,
    120,
    0,
    0,
    0,
    0,
    0,
    0,
    0,
    0,
    0,
    0,
    0,
    0,
    0,
    0,
    0,
    0,
    0,
    0,
    26
  ],
  "122": [
    5,
    550,
    0,
    0,
    0,
    0,
    0,
    0,
    0,
    12,
    0,
    15,
    0,
    0,
    0,
    0,
    0,
    25,
    55,
    15,
    35,
    84
  ],
  "77": [
    0,
    0,
    0,
    2,
    13,
    2,
    0,
    0,
    15,
    -2,
    0,
    2,
    14,
    0,
    0,
    0,
    0,
    0,
    0,
    0,
    0,
    39
  ],
  "71": [
    0,
    0,
    0,
    1,
    0,
    1,
    14,
    0,
    0,
    -2,
    0,
    2,
    11,
    0,
    0,
    0,
    0,
    5,
    0,
    0,
    0,
    31
  ],
  "139": [
    0,
    0,
    0,
    0,
    0,
    0,
    0,
    8,
    0,
    0,
    0,
    0,
    0,
    35,
    0,
    110,
    25,
    0,
    0,
    0,
    0,
    90
  ],
  "124": [
    0,
    0,
    0,
    0,
    0,
    0,
    0,
    0,
    0,
    0,
    0,
    25,
    0,
    25,
    0,
    0,
    0,
    25,
    0,
    0,
    0,
    85
  ],
  "146": [
    18,
    0,
    0,
    20,
    0,
    0,
    0,
    0,
    0,
    20,
    0,
    0,
    0,
    0,
    0,
    0,
    0,
    10,
    0,
    0,
    0,
    95
  ],
  "115": [
    0,
    0,
    0,
    0,
    0,
    0,
    0,
    0,
    0,
    0,
    0,
    0,
    0,
    20,
    0,
    85,
    35,
    0,
    0,
    0,
    0,
    81
  ],
  "135": [
    16,
    0,
    0,
    35,
    0,
    0,
    0,
    0,
    0,
    -10,
    0,
    0,
    0,
    0,
    0,
    0,
    0,
    0,
    0,
    0,
    0,
    85
  ],
  "82": [
    0,
    0,
    0,
    0,
    0,
    0,
    0,
    0,
    -20,
    0,
    0,
    0,
    0,
    2,
    16,
    56,
    7,
    0,
    0,
    0,
    0,
    45
  ],
  "86": [
    0,
    0,
    0,
    3,
    18,
    3,
    -19,
    0,
    0,
    0,
    0,
    2,
    19,
    -3,
    0,
    0,
    0,
    8,
    0,
    0,
    0,
    50
  ],
  "65": [
    0,
    0,
    0,
    1,
    11,
    1,
    7,
    0,
    0,
    0,
    0,
    1,
    0,
    -1,
    0,
    0,
    0,
    3,
    0,
    0,
    0,
    23
  ],
  "62": [
    0,
    0,
    0,
    1,
    0,
    0,
    0,
    1,
    7,
    0,
    -7,
    1,
    8,
    0,
    0,
    0,
    0,
    0,
    0,
    0,
    0,
    19
  ],
  "29": [
    0,
    220,
    60,
    0,
    0,
    4,
    0,
    4,
    0,
    0,
    0,
    0,
    0,
    0,
    0,
    0,
    0,
    0,
    0,
    0,
    0,
    30
  ],
  "31": [
    1,
    0,
    0,
    0,
    0,
    2,
    0,
    0,
    0,
    2,
    0,
    0,
    0,
    0,
    0,
    0,
    0,
    0,
    0,
    0,
    0,
    21
  ],
  "54": [
    5,
    700,
    800,
    0,
    35,
    0,
    -10,
    0,
    -10,
    0,
    25,
    0,
    0,
    0,
    0,
    0,
    0,
    0,
    0,
    0,
    0,
    70
  ],
  "1": [
    3,
    0,
    0,
    0,
    5,
    0,
    0,
    0,
    0,
    0,
    0,
    0,
    0,
    0,
    0,
    0,
    0,
    0,
    0,
    0,
    0,
    35
  ],
  "21": [
    0,
    350,
    180,
    0,
    0,
    0,
    0,
    0,
    0,
    8,
    0,
    2,
    0,
    0,
    0,
    0,
    0,
    0,
    0,
    0,
    0,
    32
  ],
  "78": [
    0,
    108,
    0,
    0,
    0,
    0,
    0,
    0,
    0,
    0,
    0,
    0,
    0,
    0,
    0,
    0,
    0,
    0,
    0,
    0,
    0,
    40
  ],
  "152": [
    14,
    500,
    0,
    10,
    0,
    0,
    0,
    20,
    0,
    0,
    0,
    15,
    0,
    0,
    0,
    0,
    0,
    -25,
    15,
    0,
    0,
    99
  ],
  "184": [
    5,
    0,
    0,
    -21,
    0,
    10,
    25,
    36,
    0,
    0,
    28,
    0,
    0,
    46,
    0,
    0,
    0,
    0,
    0,
    0,
    0,
    120
  ],
  "94": [
    0,
    0,
    0,
    0,
    -18,
    0,
    0,
    0,
    0,
    0,
    -19,
    -3,
    0,
    3,
    0,
    64,
    11,
    0,
    0,
    0,
    0,
    60
  ],
  "144": [
    13,
    550,
    300,
    -20,
    0,
    0,
    0,
    0,
    0,
    30,
    0,
    0,
    0,
    0,
    0,
    0,
    0,
    -50,
    30,
    20,
    0,
    93
  ],
  "187": [
    12,
    0,
    677,
    0,
    0,
    0,
    0,
    0,
    0,
    -17,
    26,
    0,
    30,
    0,
    0,
    0,
    0,
    0,
    42,
    0,
    52,
    150
  ],
  "14": [
    0,
    190,
    0,
    10,
    0,
    0,
    5,
    0,
    5,
    0,
    0,
    0,
    0,
    0,
    0,
    0,
    0,
    0,
    0,
    0,
    0,
    33
  ],
  "10": [
    7,
    120,
    0,
    6,
    0,
    2,
    5,
    0,
    0,
    0,
    0,
    0,
    0,
    0,
    0,
    0,
    0,
    0,
    0,
    0,
    0,
    27
  ],
  "24": [
    0,
    100,
    200,
    0,
    0,
    4,
    0,
    4,
    0,
    0,
    0,
    0,
    0,
    0,
    0,
    0,
    0,
    0,
    0,
    0,
    0,
    27
  ],
  "61": [
    0,
    0,
    0,
    0,
    0,
    0,
    0,
    0,
    -8,
    0,
    -6,
    0,
    0,
    1,
    0,
    20,
    3,
    0,
    0,
    0,
    0,
    18
  ],
  "81": [
    0,
    0,
    49,
    2,
    0,
    0,
    0,
    0,
    -16,
    0,
    0,
    0,
    0,
    0,
    0,
    0,
    0,
    0,
    9,
    7,
    30,
    44
  ],
  "11": [
    0,
    60,
    0,
    0,
    0,
    0,
    0,
    0,
    0,
    12,
    0,
    8,
    4,
    0,
    0,
    0,
    0,
    0,
    0,
    0,
    0,
    28
  ],
  "156": [
    0,
    0,
    0,
    60,
    0,
    36,
    0,
    0,
    0,
    0,
    35,
    31,
    0,
    0,
    19,
    0,
    36,
    0,
    0,
    0,
    0,
    102
  ],
  "157": [
    16,
    571,
    0,
    33,
    0,
    21,
    0,
    20,
    0,
    0,
    0,
    34,
    0,
    0,
    0,
    164,
    0,
    35,
    0,
    0,
    0,
    103
  ],
  "131": [
    12,
    300,
    0,
    0,
    0,
    0,
    0,
    0,
    0,
    15,
    0,
    8,
    0,
    0,
    0,
    0,
    0,
    0,
    35,
    10,
    0,
    89
  ],
  "108": [
    0,
    208,
    117,
    0,
    0,
    0,
    0,
    0,
    0,
    0,
    0,
    0,
    0,
    0,
    0,
    0,
    0,
    0,
    12,
    13,
    52,
    78
  ],
  "130": [
    8,
    0,
    0,
    12,
    0,
    25,
    0,
    25,
    0,
    0,
    0,
    0,
    0,
    12,
    0,
    0,
    0,
    0,
    0,
    0,
    0,
    86
  ],
  "106": [
    0,
    0,
    0,
    0,
    0,
    0,
    0,
    0,
    0,
    0,
    0,
    -3,
    -24,
    0,
    35,
    72,
    0,
    0,
    0,
    0,
    0,
    76
  ],
  "140": [
    0,
    0,
    0,
    0,
    0,
    0,
    0,
    0,
    0,
    0,
    0,
    0,
    0,
    45,
    0,
    120,
    0,
    0,
    0,
    0,
    0,
    91
  ],
  "68": [
    0,
    0,
    0,
    1,
    11,
    -1,
    0,
    0,
    11,
    0,
    0,
    1,
    0,
    -1,
    0,
    0,
    0,
    5,
    0,
    0,
    0,
    27
  ],
  "64": [
    0,
    0,
    0,
    0,
    0,
    0,
    0,
    0,
    0,
    -1,
    0,
    -1,
    0,
    1,
    8,
    20,
    3,
    0,
    0,
    0,
    0,
    22
  ],
  "92": [
    0,
    0,
    0,
    3,
    26,
    2,
    26,
    0,
    0,
    0,
    0,
    2,
    24,
    0,
    0,
    0,
    0,
    0,
    0,
    0,
    0,
    58
  ],
  "132": [
    0,
    0,
    0,
    0,
    0,
    0,
    0,
    0,
    0,
    0,
    0,
    0,
    0,
    25,
    0,
    130,
    0,
    0,
    0,
    0,
    0,
    88
  ],
  "103": [
    0,
    0,
    0,
    -3,
    0,
    -5,
    0,
    0,
    -30,
    -5,
    0,
    0,
    0,
    3,
    0,
    76,
    0,
    0,
    0,
    0,
    0,
    72
  ],
  "22": [
    3,
    0,
    120,
    0,
    0,
    6,
    0,
    0,
    0,
    0,
    4,
    0,
    0,
    0,
    0,
    0,
    0,
    0,
    0,
    0,
    0,
    22
  ],
  "34": [
    0,
    250,
    0,
    0,
    0,
    0,
    1,
    -2,
    0,
    0,
    0,
    0,
    0,
    0,
    0,
    0,
    0,
    0,
    0,
    0,
    0,
    25
  ],
  "36": [
    0,
    100,
    0,
    0,
    0,
    2,
    0,
    3,
    0,
    0,
    0,
    0,
    0,
    0,
    0,
    0,
    0,
    0,
    0,
    0,
    0,
    16
  ],
  "37": [
    0,
    0,
    180,
    0,
    0,
    0,
    5,
    0,
    5,
    0,
    5,
    0,
    0,
    0,
    0,
    0,
    0,
    0,
    0,
    0,
    0,
    26
  ],
  "39": [
    0,
    280,
    60,
    0,
    4,
    0,
    0,
    5,
    0,
    0,
    0,
    0,
    0,
    0,
    0,
    0,
    0,
    0,
    0,
    0,
    0,
    23
  ],
  "159": [
    0,
    0,
    468,
    -18,
    0,
    25,
    0,
    0,
    21,
    50,
    0,
    0,
    0,
    0,
    30,
    0,
    0,
    35,
    0,
    0,
    0,
    104
  ],
  "114": [
    10,
    250,
    0,
    10,
    0,
    0,
    0,
    0,
    0,
    0,
    0,
    0,
    0,
    0,
    0,
    0,
    0,
    0,
    20,
    18,
    75,
    81
  ],
  "143": [
    12,
    0,
    0,
    0,
    0,
    0,
    0,
    0,
    0,
    0,
    0,
    30,
    0,
    0,
    0,
    0,
    0,
    20,
    20,
    20,
    0,
    93
  ],
  "104": [
    0,
    0,
    0,
    3,
    24,
    -5,
    27,
    0,
    0,
    0,
    0,
    0,
    28,
    0,
    0,
    0,
    0,
    15,
    0,
    0,
    0,
    73
  ],
  "32": [
    0,
    60,
    0,
    0,
    0,
    0,
    0,
    0,
    0,
    4,
    0,
    0,
    0,
    0,
    0,
    0,
    0,
    0,
    0,
    0,
    0,
    16
  ],
  "150": [
    18,
    0,
    0,
    0,
    0,
    25,
    0,
    0,
    0,
    -25,
    0,
    30,
    0,
    0,
    0,
    0,
    0,
    20,
    -30,
    0,
    0,
    98
  ],
  "53": [
    9,
    -200,
    500,
    0,
    13,
    0,
    0,
    0,
    25,
    0,
    0,
    0,
    0,
    0,
    0,
    0,
    0,
    0,
    0,
    0,
    0,
    60
  ],
  "73": [
    0,
    0,
    0,
    0,
    0,
    0,
    0,
    0,
    0,
    0,
    0,
    0,
    -14,
    0,
    12,
    40,
    4,
    0,
    0,
    0,
    0,
    33
  ],
  "161": [
    22,
    0,
    250,
    49,
    17,
    25,
    35,
    10,
    0,
    0,
    0,
    0,
    0,
    0,
    0,
    0,
    0,
    0,
    0,
    0,
    42,
    105
  ],
  "134": [
    0,
    500,
    0,
    0,
    0,
    0,
    0,
    0,
    0,
    35,
    0,
    35,
    0,
    0,
    0,
    0,
    0,
    30,
    0,
    0,
    60,
    88
  ],
  "7": [
    7,
    400,
    0,
    0,
    20,
    0,
    20,
    0,
    0,
    0,
    0,
    0,
    0,
    0,
    0,
    0,
    0,
    0,
    0,
    0,
    0,
    45
  ],
  "99": [
    0,
    199,
    0,
    0,
    0,
    0,
    0,
    0,
    0,
    0,
    0,
    0,
    0,
    0,
    0,
    0,
    0,
    0,
    0,
    0,
    0,
    67
  ],
  "80": [
    0,
    0,
    0,
    2,
    0,
    -2,
    14,
    0,
    0,
    -2,
    0,
    3,
    0,
    -2,
    -2,
    0,
    0,
    0,
    0,
    0,
    0,
    42
  ],
  "48": [
    0,
    0,
    0,
    2,
    0,
    2,
    0,
    0,
    0,
    0,
    0,
    2,
    0,
    0,
    0,
    0,
    0,
    0,
    0,
    0,
    0,
    27
  ],
  "51": [
    7,
    0,
    300,
    15,
    0,
    0,
    -13,
    18,
    0,
    0,
    28,
    0,
    0,
    0,
    0,
    0,
    0,
    0,
    0,
    0,
    0,
    42
  ],
  "163": [
    9,
    900,
    0,
    36,
    0,
    0,
    0,
    0,
    0,
    -25,
    0,
    18,
    0,
    0,
    0,
    0,
    0,
    35,
    0,
    0,
    0,
    107
  ],
  "38": [
    6,
    0,
    24,
    6,
    0,
    2,
    4,
    0,
    0,
    0,
    0,
    0,
    0,
    0,
    0,
    0,
    0,
    0,
    0,
    0,
    0,
    25
  ],
  "153": [
    19,
    0,
    0,
    0,
    0,
    25,
    0,
    25,
    0,
    0,
    0,
    0,
    0,
    0,
    0,
    0,
    0,
    0,
    0,
    0,
    0,
    100
  ],
  "147": [
    0,
    0,
    0,
    0,
    0,
    0,
    0,
    0,
    0,
    0,
    0,
    0,
    0,
    -30,
    0,
    155,
    35,
    0,
    0,
    0,
    0,
    95
  ],
  "33": [
    2,
    0,
    30,
    0,
    0,
    0,
    0,
    0,
    0,
    0,
    0,
    3,
    0,
    0,
    0,
    0,
    0,
    0,
    0,
    0,
    0,
    22
  ],
  "66": [
    0,
    0,
    30,
    1,
    0,
    0,
    0,
    0,
    -9,
    0,
    0,
    0,
    0,
    0,
    0,
    0,
    0,
    0,
    5,
    0,
    12,
    24
  ],
  "90": [
    0,
    151,
    0,
    0,
    19,
    0,
    0,
    0,
    0,
    0,
    0,
    0,
    0,
    0,
    0,
    0,
    0,
    0,
    0,
    0,
    0,
    55
  ],
  "69": [
    0,
    0,
    32,
    0,
    0,
    0,
    0,
    -1,
    0,
    0,
    0,
    0,
    0,
    0,
    0,
    0,
    0,
    0,
    5,
    0,
    14,
    28
  ],
  "30": [
    0,
    0,
    0,
    0,
    15,
    0,
    0,
    0,
    0,
    16,
    0,
    0,
    0,
    0,
    0,
    0,
    0,
    0,
    0,
    0,
    0,
    32
  ],
  "47": [
    3,
    160,
    0,
    0,
    0,
    2,
    6,
    0,
    8,
    0,
    0,
    0,
    24,
    0,
    0,
    0,
    0,
    0,
    0,
    0,
    0,
    32
  ],
  "63": [
    0,
    0,
    21,
    0,
    0,
    0,
    0,
    0,
    -10,
    0,
    0,
    0,
    0,
    0,
    0,
    0,
    0,
    0,
    3,
    0,
    8,
    21
  ],
  "107": [
    0,
    0,
    0,
    0,
    33,
    0,
    27,
    0,
    0,
    0,
    0,
    5,
    28,
    0,
    0,
    0,
    0,
    16,
    0,
    0,
    0,
    77
  ],
  "89": [
    0,
    0,
    0,
    4,
    18,
    3,
    22,
    0,
    0,
    0,
    0,
    2,
    21,
    0,
    0,
    0,
    0,
    10,
    0,
    0,
    0,
    54
  ]
}
