{
  "0": {},
  "1": {
    "37": 15
  },
  "2": {
    "25": 3,
    "31": 3
  },
  "3": {
    "6": 4,
    "31": 6
  },
  "4": {
    "6": 9
  },
  "5": {
    "16": 3,
    "31": 3
  },
  "6": {
    "5": 4,
    "16": 2
  },
  "7": {},
  "8": {
    "23": 12
  },
  "9": {
    "37": 11,
    "39": 1
  },
  "10": {},
  "11": {
    "6": 6
  },
  "12": {
    "37": 12
  },
  "13": {
    "5": 4,
    "6": 2,
    "25": 2
  },
  "14": {},
  "15": {
    "23": 9,
    "39": 3
  },
  "16": {
    "5": 6
  },
  "17": {
    "31": 7
  },
  "18": {
    "5": 1,
    "6": 5
  },
  "19": {},
  "20": {
    "6": 6,
    "16": 3,
    "31": 1
  },
  "21": {
    "25": 2,
    "31": 4
  },
  "22": {},
  "23": {
    "23": 15
  },
  "24": {
    "24": 13
  },
  "25": {},
  "26": {
    "5": 5,
    "16": 4
  },
  "27": {},
  "28": {},
  "29": {
    "16": 3,
    "25": 3,
    "31": 4
  },
  "30": {
    "5": 4,
    "25": 6
  },
  "31": {
    "6": 12
  },
  "32": {
    "23": 7,
    "37": 1,
    "39": 4
  },
  "33": {
    "37": 12
  },
  "34": {
    "34": 1,
    "37": 9,
    "48": 1
  },
  "35": {
    "5": 9,
    "25": 1
  },
  "36": {
    "23": 1,
    "39": 14
  },
  "37": {
    "16": 6,
    "31": 5
  },
  "38": {
    "5": 2,
    "6": 2,
    "16": 2,
    "25": 2,
    "31": 2
  },
  "39": {
    "5": 4,
    "25": 5
  },
  "40": {
    "25": 4,
    "31": 4
  },
  "41": {},
  "42": {
    "16": 2,
    "31": 10
  },
  "43": {
    "25": 7
  },
  "44": {
    "23": 1,
    "24": 11
  },
  "45": {},
  "46": {
    "23": 2,
    "24": 11
  },
  "47": {
    "6": 5,
    "25": 3,
    "31": 3
  },
  "48": {
    "16": 4,
    "25": 4
  },
  "49": {
    "25": 4,
    "31": 4
  },
  "50": {
    "6": 6,
    "16": 2,
    "31": 1
  },
  "51": {
    "5": 3,
    "25": 5
  },
  "52": {
    "6": 5,
    "25": 5
  },
  "53": {
    "16": 3,
    "25": 2,
    "31": 2
  },
  "54": {},
  "55": {
    "24": 5,
    "34": 4,
    "48": 5
  },
  "56": {
    "23": 1,
    "24": 1,
    "39": 12
  },
  "57": {},
  "58": {
    "23": 2,
    "37": 4,
    "39": 6
  },
  "59": {
    "5": 5,
    "6": 6
  },
  "60": {},
  "61": {
    "6": 9
  },
  "62": {},
  "63": {
    "34": 1,
    "37": 11
  },
  "64": {},
  "65": {
    "37": 6,
    "39": 6
  },
  "66": {
    "23": 1,
    "24": 11
  },
  "67": {
    "5": 7,
    "6": 2
  },
  "68": {},
  "69": {
    "25": 9
  },
  "70": {
    "23": 4,
    "24": 8
  },
  "71": {
    "5": 8,
    "25": 2
  },
  "72": {
    "5": 4,
    "6": 4,
    "25": 2
  },
  "73": {
    "6": 6,
    "14": 2,
    "16": 2
  },
  "74": {
    "23": 4,
    "24": 3,
    "34": 2,
    "48": 3
  },
  "75": {
    "23": 2,
    "24": 4,
    "37": 7
  },
  "76": {
    "28": 8,
    "32": 2,
    "46": 14
  },
  "77": {
    "19": 7,
    "30": 12,
    "41": 2
  },
  "78": {
    "23": 3,
    "24": 1,
    "39": 7
  },
  "79": {
    "5": 2,
    "14": 5,
    "31": 2
  },
  "80": {
    "23": 3,
    "34": 1,
    "39": 7,
    "48": 1
  },
  "81": {
    "5": 1,
    "6": 4,
    "14": 3,
    "25": 1
  },
  "82": {
    "23": 2,
    "24": 4,
    "39": 6
  },
  "83": {
    "37": 13
  },
  "84": {
    "5": 1,
    "6": 6,
    "16": 1,
    "25": 1
  },
  "85": {
    "34": 3,
    "37": 7,
    "39": 5
  },
  "86": {
    "6": 3,
    "14": 5,
    "16": 1,
    "25": 1
  },
  "87": {
    "23": 1,
    "34": 1,
    "37": 10
  },
  "88": {
    "14": 4,
    "16": 3,
    "31": 3
  },
  "89": {
    "34": 12
  },
  "90": {
    "37": 9,
    "39": 4
  },
  "91": {
    "23": 12
  },
  "92": {
    "39": 11,
    "48": 1
  },
  "93": {
    "6": 8,
    "25": 1
  },
  "94": {
    "23": 2,
    "39": 11
  },
  "95": {},
  "96": {
    "23": 3,
    "34": 4,
    "37": 1,
    "48": 5
  },
  "97": {
    "5": 6,
    "14": 4,
    "25": 1
  },
  "98": {
    "33": 20
  },
  "99": {
    "23": 3,
    "24": 1,
    "37": 6,
    "39": 5
  },
  "110": {
    "6": 6
  },
  "111": {
    "25": 6
  },
  "112": {},
  "113": {},
  "114": {
    "25": 7
  },
  "115": {
    "16": 5,
    "31": 2
  },
  "116": {
    "5": 1,
    "14": 1,
    "31": 5
  },
  "117": {
    "25": 7
  },
  "118": {
    "6": 7
  },
  "119": {
    "14": 1,
    "25": 7
  },
  "120": {
    "25": 8
  },
  "121": {
    "5": 2,
    "16": 6
  },
  "122": {
    "14": 8
  },
  "123": {
    "25": 9
  },
  "124": {
    "5": 6,
    "6": 3
  },
  "125": {},
  "126": {
    "25": 9
  },
  "127": {
    "5": 7,
    "6": 1,
    "16": 1,
    "31": 1
  },
  "128": {
    "6": 3,
    "14": 6
  },
  "129": {
    "25": 10
  },
  "130": {
    "5": 2,
    "6": 1,
    "16": 8
  },
  "131": {
    "14": 10
  },
  "132": {
    "25": 10
  },
  "133": {
    "5": 2,
    "16": 7,
    "25": 1
  },
  "134": {
    "6": 10
  },
  "135": {
    "6": 1,
    "25": 9
  },
  "136": {
    "5": 2,
    "6": 1,
    "16": 8,
    "25": 1
  },
  "137": {
    "5": 2,
    "6": 9
  },
  "138": {
    "25": 11
  },
  "139": {
    "6": 5,
    "31": 7
  },
  "140": {},
  "141": {
    "25": 12
  },
  "142": {
    "5": 8,
    "6": 4
  },
  "143": {
    "39": 12
  },
  "144": {
    "23": 12
  },
  "145": {
    "37": 4,
    "48": 8
  },
  "146": {
    "23": 1,
    "24": 3,
    "48": 10
  },
  "147": {
    "23": 11,
    "37": 2
  },
  "148": {
    "23": 2,
    "24": 1,
    "34": 2,
    "37": 7
  },
  "149": {
    "23": 1,
    "24": 4,
    "37": 1,
    "48": 8
  },
  "150": {
    "23": 10,
    "48": 3
  },
  "151": {
    "23": 2,
    "37": 10,
    "48": 2
  },
  "152": {
    "37": 5,
    "39": 8
  },
  "153": {
    "23": 14
  },
  "154": {
    "23": 4,
    "24": 9,
    "37": 1
  },
  "155": {
    "39": 14
  },
  "156": {
    "23": 14
  },
  "157": {
    "23": 1,
    "24": 2,
    "34": 11,
    "37": 1
  },
  "158": {
    "39": 14
  },
  "159": {
    "23": 11,
    "24": 4
  },
  "160": {
    "23": 1,
    "37": 1,
    "48": 12
  },
  "161": {
    "39": 15
  },
  "162": {
    "23": 15
  },
  "163": {
    "24": 7,
    "48": 9
  },
  "164": {
    "23": 9,
    "37": 7
  },
  "165": {
    "23": 16
  },
  "166": {},
  "167": {
    "39": 16
  },
  "168": {
    "23": 16
  },
  "169": {
    "24": 10,
    "37": 6,
    "48": 2
  },
  "170": {
    "23": 5,
    "37": 12
  },
  "171": {
    "23": 17
  },
  "172": {
    "24": 9,
    "37": 9
  },
  "173": {
    "37": 1,
    "39": 16
  },
  "174": {
    "23": 17
  },
  "175": {
    "23": 6,
    "37": 9,
    "48": 1
  },
  "176": {
    "33": 9,
    "41": 9
  },
  "177": {
    "33": 3,
    "41": 15
  },
  "178": {
    "19": 2,
    "33": 13,
    "52": 3
  },
  "179": {
    "33": 11,
    "41": 8
  },
  "180": {
    "41": 19
  },
  "181": {
    "12": 12,
    "33": 7
  },
  "182": {
    "19": 4,
    "33": 2,
    "52": 13
  },
  "183": {
    "33": 6,
    "41": 13
  },
  "184": {},
  "185": {
    "41": 19
  },
  "186": {
    "41": 20
  },
  "187": {
    "12": 17,
    "19": 1,
    "33": 2
  },
  "188": {
    "41": 20
  },
  "189": {
    "41": 20
  },
  "190": {
    "12": 18,
    "33": 1,
    "41": 2
  },
  "191": {
    "30": 20
  },
  "192": {
    "33": 1,
    "41": 19
  },
  "193": {
    "19": 11,
    "33": 9,
    "52": 1
  },
  "194": {},
  "195": {
    "41": 21
  },
  "196": {
    "12": 15,
    "19": 4,
    "33": 1,
    "41": 2
  },
  "197": {
    "30": 12,
    "33": 9
  },
  "198": {
    "41": 21
  },
  "199": {
    "33": 1,
    "41": 1,
    "52": 19
  },
  "200": {
    "19": 6,
    "30": 1,
    "33": 2,
    "52": 14
  },
  "201": {
    "19": 1,
    "41": 21
  },
  "202": {},
  "203": {
    "19": 7,
    "30": 1,
    "33": 1,
    "41": 2,
    "52": 14
  },
  "204": {},
  "205": {
    "19": 13,
    "33": 9,
    "52": 1
  },
  "206": {
    "19": 6,
    "33": 1,
    "41": 1,
    "52": 16
  },
  "207": {
    "41": 23
  },
  "208": {
    "12": 16,
    "19": 5,
    "33": 1,
    "41": 2
  },
  "209": {},
  "210": {
    "28": 9,
    "43": 5,
    "46": 6,
    "51": 6
  },
  "215": {
    "28": 3,
    "32": 1,
    "43": 17,
    "44": 4,
    "46": 4
  },
  "218": {
    "32": 7,
    "43": 6,
    "46": 7,
    "51": 7
  },
  "220": {
    "28": 3,
    "32": 1,
    "43": 22,
    "44": 1,
    "46": 2,
    "51": 1
  },
  "221": {
    "32": 4,
    "44": 4,
    "46": 18
  },
  "222": {
    "32": 27,
    "43": 1
  },
  "223": {
    "28": 9,
    "32": 3,
    "44": 4,
    "46": 11
  },
  "224": {
    "32": 30
  },
  "229": {
    "28": 11,
    "32": 2,
    "44": 5,
    "46": 11
  },
  "230": {
    "32": 1,
    "46": 3,
    "51": 23
  },
  "232": {
    "46": 22,
    "51": 2
  },
  "234": {
    "43": 1,
    "44": 1,
    "46": 3,
    "51": 19
  },
  "236": {
    "32": 23,
    "43": 1
  },
  "237": {
    "43": 4,
    "44": 1,
    "46": 20,
    "51": 4
  },
  "239": {
    "32": 1,
    "43": 13,
    "44": 2,
    "46": 4,
    "51": 6
  },
  "240": {
    "28": 18,
    "32": 4,
    "43": 2,
    "44": 7
  },
  "241": {
    "53": 28,
    "57": 2
  },
  "242": {
    "53": 21,
    "55": 5,
    "57": 3,
    "59": 2
  },
  "243": {
    "53": 2,
    "55": 8,
    "56": 4,
    "57": 15,
    "60": 2
  },
  "244": {
    "53": 2,
    "57": 5,
    "60": 23
  },
  "245": {
    "55": 13,
    "57": 4,
    "59": 13
  },
  "246": {
    "57": 8,
    "59": 10,
    "60": 13
  },
  "247": {
    "53": 4,
    "57": 22,
    "59": 5
  },
  "248": {
    "53": 16,
    "55": 1,
    "57": 1,
    "59": 3,
    "60": 12
  },
  "249": {
    "53": 32
  },
  "250": {
    "57": 5,
    "60": 27
  },
  "251": {
    "56": 5,
    "59": 27
  },
  "252": {
    "53": 15,
    "57": 17
  },
  "253": {
    "28": 9,
    "32": 24
  },
  "254": {
    "53": 22,
    "57": 1,
    "59": 4,
    "60": 6
  },
  "255": {
    "53": 7,
    "55": 15,
    "57": 11
  },
  "256": {
    "53": 3,
    "56": 27,
    "57": 3
  },
  "257": {
    "57": 26,
    "59": 7
  },
  "258": {
    "53": 14,
    "56": 10,
    "57": 8
  },
  "259": {
    "53": 8,
    "57": 11,
    "59": 13
  },
  "260": {
    "53": 16,
    "57": 17
  },
  "261": {
    "57": 33
  },
  "262": {
    "53": 13,
    "57": 20
  },
  "263": {
    "53": 33
  },
  "264": {
    "53": 25,
    "55": 8
  },
  "265": {
    "56": 16,
    "60": 17
  },
  "266": {
    "53": 6,
    "56": 9,
    "57": 8,
    "59": 10
  },
  "267": {
    "55": 6,
    "59": 1,
    "60": 27
  },
  "268": {
    "57": 5,
    "59": 4,
    "60": 26
  },
  "269": {
    "53": 32,
    "57": 2
  },
  "270": {
    "53": 4,
    "56": 11,
    "57": 19
  },
  "271": {
    "53": 16,
    "57": 10,
    "59": 7
  },
  "272": {
    "55": 9,
    "57": 20,
    "59": 6
  },
  "273": {
    "53": 31,
    "60": 3
  },
  "274": {
    "53": 10,
    "57": 14,
    "59": 10
  },
  "275": {
    "56": 34
  },
  "276": {
    "56": 3,
    "59": 20,
    "60": 11
  },
  "277": {
    "53": 30,
    "57": 4
  },
  "278": {
    "53": 20,
    "56": 1,
    "57": 11,
    "59": 2
  },
  "279": {
    "53": 19,
    "55": 5,
    "57": 10
  },
  "280": {
    "53": 8,
    "57": 13,
    "59": 13
  },
  "281": {
    "53": 9,
    "57": 25
  },
  "282": {
    "53": 5,
    "57": 29
  },
  "283": {
    "53": 22,
    "55": 7,
    "56": 2,
    "57": 3
  },
  "284": {
    "53": 15,
    "60": 20
  },
  "285": {
    "32": 6,
    "43": 2,
    "44": 27
  },
  "286": {
    "55": 13,
    "59": 22
  },
  "287": {
    "53": 26,
    "59": 5,
    "60": 4
  },
  "288": {
    "55": 15,
    "57": 16,
    "60": 4
  },
  "289": {
    "53": 29,
    "56": 4,
    "59": 2
  },
  "290": {
    "53": 38
  },
  "291": {
    "53": 27,
    "56": 6,
    "59": 8
  },
  "292": {
    "53": 38,
    "55": 2,
    "59": 1,
    "60": 4
  },
  "293": {
    "53": 1,
    "59": 46
  }
}
